Figure Formatting
…
write.csv(wetuplmestbl, "SOIL CARBON/All_WA/data/dataframes/wetuplmes_landscape_SOC_table.csv")

# flextable() |>merge_v(j = c('Study Area', 'Landscape
# Class')) |> colformat_num(big.mark = ',') |>
# set_table_properties(layout = 'autofit', align =
# 'center') |> align(align = 'center', part = 'all') |>
# hline(part = 'body') |> mk_par( part = 'header', j = 3,
# value = as_paragraph('Mean SOC Stock (Mg ha',
# as_sup('-1'), ')') )

wetupltbl
## # A tibble: 30 × 5
## # Groups:   site, landscapeClassWetUpl [6]
##    site     landscapeClassWetUpl SOC         lower_depth     n
##    <chr>    <chr>                <chr>             <int> <int>
##  1 Colville Upland               0.23 ± 0.24          15    19
##  2 Colville Upland               0.25 ± 0.46          30    19
##  3 Colville Upland               0.18 ± 0.43          60    19
##  4 Colville Upland               0.04 ± 0.03         100    16
##  5 Colville Upland               0.12 ± 0.11         200    11
##  6 Colville Wetland              0.37 ± 0.19          15    11
##  7 Colville Wetland              0.28 ± 0.19          30    11
##  8 Colville Wetland              0.16 ± 0.15          60    11
##  9 Colville Wetland              0.09 ± 0.14         100    11
## 10 Colville Wetland              0.11 ± 0.18         200    10
## # ℹ 20 more rows
wetuplmestbl
## # A tibble: 45 × 5
## # Groups:   site, landscapeClassWetUplMes [9]
##    site     landscapeClassWetUplMes SOC         lower_depth     n
##    <chr>    <chr>                   <chr>             <int> <int>
##  1 Colville Mesic                   0.2 ± 0.12           15    18
##  2 Colville Mesic                   0.17 ± 0.2           30    18
##  3 Colville Mesic                   0.09 ± 0.16          60    18
##  4 Colville Mesic                   0.04 ± 0.03         100    15
##  5 Colville Mesic                   0.11 ± 0.12         200    10
##  6 Colville Upland                  0.51 ± 0.6           15     3
##  7 Colville Upland                  0.73 ± 1.08          30     3
##  8 Colville Upland                  0.66 ± 1.03          60     3
##  9 Colville Upland                  0.07 ± 0.05         100     3
## 10 Colville Upland                  0.09 ± 0.08         200     3
## # ℹ 35 more rows
…
